…
``` r
pots <- OxfordPots %>%
  as_tibble %>%
  rename(to = Place) %>%
  gather(key, value, OxfordPct:NewForestDst) %>%
  separate(key, c('from', 'measure'), sep = -3) %>%
  spread(measure, value) %>%
  rename(percent = Pct, distance = Dst) %>%
  mutate(from = str_replace(from, 'NewForest', 'New Forest'),
         water = as.factor(WaterTrans == 1)) %>%
  select(to, from, percent, distance, water) %>%
  filter(!is.na(percent))
```

    ## # A tibble: 43 x 5
    ##    to               from       percent distance water
    ##    <chr>            <chr>        <dbl>    <dbl> <fct>
    ##  1 Alchester        Oxford       22.5        11 TRUE 
    ##  2 Bath             New Forest    1.25       45 TRUE 
    ##  3 Bath             Oxford       21.2        55 TRUE 
    ##  4 Brough-on-Humber Oxford        1.5       140 FALSE
    ##  5 Caerwent         Oxford       19          74 TRUE 
    ##  6 Caister          Oxford        4         135 FALSE
    ##  7 Canterbury       Oxford       17.5       105 TRUE 
    ##  8 Chichester       New Forest   13          40 FALSE
    ##  9 Chichester       Oxford        6.75       65 FALSE
    ## 10 Cholchester      Oxford        7          95 FALSE
    ## # … with 33 more rows
…
    ## Simple feature collection with 41 features and 6 fields
    ## geometry type:  POINT
    ## dimension:      XY
    ## bbox:           xmin: -120.6025 ymin: 34.38628 xmax: -119.4828 ymax: 34.74438
    ## epsg (SRID):    4326
    ## proj4string:    +proj=longlat +datum=WGS84 +no_defs
    ## # A tibble: 41 x 7
    ##    village   baptisms size       coastal     x     y             geometry
    ##    <chr>        <dbl> <ord>      <lgl>   <dbl> <dbl>          <POINT [°]>
    ##  1 Alcas           78 medium     TRUE    -120.  34.4 (-119.8207 34.42212)
    ##  2 Aquitsumu       98 large      FALSE   -120.  34.7 (-119.9111 34.68646)
    ##  3 Calahuasa      182 very large FALSE   -120.  34.6 (-120.0362 34.58337)
    ##  4 Casil          115 large      TRUE    -120.  34.5  (-120.077 34.46335)
    ##  5 Coloc           48 medium     TRUE    -120.  34.4 (-119.5574 34.42212)
    ##  6 Cuyamu          27 small      TRUE    -120.  34.4 (-119.9547 34.44273)
    ##  7 Elijman         17 small      FALSE   -120.  34.6 (-119.9074 34.56398)
    ##  8 Estait         111 large      TRUE    -120.  34.5 (-120.3175 34.46801)
    ##  9 Geliec         102 large      TRUE    -120.  34.4 (-119.8458 34.41549)
    ## 10 Gelo           152 large      TRUE    -120.  34.4 (-119.8389 34.42433)
    ## # … with 31 more rows
…
